D:\Testset\RX6464_GB_DCTest\TestEngine\Configuration\CoRxDcTest\DCTestParams.xml
D:\Testset\RX6464_GB_DCTest\TestEngine\Configuration\CoRxDcTest\Fws2PcasStage.xml
D:\Testset\RX6464_GB_DCTest\TestEngine\Configuration\CoRxDcTest\FwsTestStageList.csv
D:\Testset\RX6464_GB_DCTest\TestEngine\Configuration\CoRxDcTest\Node1754\InstrumentParams.xml
