coh_rx_phase_angle_03
AUX_BIAS_SIG_X,reverse bias voltage for sig_x aux pd,-9999,9999,V,#0.0,0,2,0
AUX_BIAS_SIG_Y,reverse bias voltage for sig_y aux pd,-9999,9999,V,#0.0,0,2,0
COMMENTS,comments,-9999,9999,none,256A,0,3,0
EQUIP_ID,Equipment Identity,-9999,9999,none,&,0,4,0
FIT_COEFFICIENT_TEMP1_FILE,fitting coefficient file for all lanes  at temperature 1,-9999,9999,none,&,0,3,0
FIT_CORRE_XIP_WL1_TEMP1,fitting coefficient for xip under wavelength 1 and temperature 1,2,9999,none,#0.00,0,2,0
FIT_CORRE_XQP_WL1_TEMP1,fitting coefficient for xqp under wavelength 1 and temperature 1,2,9999,none,#0.00,0,2,0
FIT_CORRE_YIP_WL1_TEMP1,fitting coefficient for yip under wavelength 1 and temperature 1,2,9999,none,#0.00,0,2,0
FIT_CORRE_YQP_WL1_TEMP1,fitting coefficient for yqp under wavelength 1 and temperature 1,2,9999,none,#0.00,0,2,0
ICC_TIA_X_TEMP1,supply current for XI and XQ VCC at temperature 1,80,9999,mA,#0.00,0,2,0
ICC_TIA_Y_TEMP1,supply current for YI and YQ VCC at temperature 1,80,9999,mA,#0.00,0,2,0
INPUT_POWER_LOCAL,actual input power to local fibre,-9999,9999,dBm,#0.00,0,2,0
INPUT_POWER_SIGNAL,actual input power to signal fibre,-9999,9999,dBm,#0.00,0,2,0
NODE,Node Number,-9999,9999,none,0,0,1,0
OPERATOR_ID,Operator identifier,-9999,9999,none,&,0,4,0
PART_CODE,Product code,-9999,9999,none,20A,0,5,0
PHASE_ERR_XIP_XQP_WL1_TEMP1,xip and xqp phase under wavelength 1 and temperature 1,-5,5,degree,#0.00,0,2,0
PHASE_ERR_YIP_YQP_WL1_TEMP1,yip and yqp phase under wavelength 1 and temperature 1,-5,5,degree,#0.00,0,2,0
PHASE_TEMP1_FILE,data file under temperature 1,-9999,9999,none,&,0,3,0
PHASE_XIP_WL1_TEMP1,xip phase under wavelength 1 and temperature 1,-9999,9999,degree,#0.00,0,2,0
PHASE_XQP_WL1_TEMP1,xqp phase under wavelength 1 and temperature 1,-9999,9999,degree,#0.00,0,2,0
PHASE_YIP_WL1_TEMP1,yip phase under wavelength 1 and temperature 1,-9999,9999,degree,#0.00,0,2,0
PHASE_YQP_WL1_TEMP1,yqp phase under wavelength 1 and temperature 1,-9999,9999,degree,#0.00,0,2,0
POL_CURRENT_TEMP1_FILE,photocurrent for polarization optimization at temperature 1,-9999,9999,none,&,0,3,0
SOFTWARE_IDENT,Software Identity,-9999,9999,none,256A,0,3,0
SPEC_ID,Specification ID,-9999,9999,none,80A,0,4,0
TC_ITLA_POWER_SET,itla power output setting,13,13,dBm,#0.00,0,2,0
TC_PD_REVERSE_BIAS,reverse bias voltage for working PD,5,5,V,#0.00,0,2,0
TC_TEMPERATURE_1,test temperature 1,35,35,degC,#0.0,0,2,0
TC_TIA_VCC,TIA supply voltage,3.3,3.3,V,#0.00,0,2,0
TC_WAVELENGTH_1,test wavelength 2,1550.11,1550.11,nm,#0.00,0,2,0
TC1_AUX_PD_REVERSE_BIAS,reverse bias condition 1 for aux pd,10,10,V,#0.0,0,2,0
TC2_AUX_PD_REVERSE_BIAS,reverse bias condition 2 for aux pd,14,14,V,#0.0,0,2,0
TEST_STATUS,TEST_STATUS,-9999,9999,none,14A,0,6,0
TEST_TIME,Test Time,-9999,9999,minute,#0.00,0,2,0
TIME_DATE,Time and Date,-9999,9999,none,14A,0,6,0
X_CHIP_BIN,x chip bin identification,-9999,9999,none,80A,0,4,0
X_CHIP_ID,x chip identification,-9999,9999,none,80A,0,4,0
X_COC_SN,x CoC serial no.,-9999,9999,none,80A,0,4,0
X_WAFER_ID,x wafer identification,-9999,9999,none,80A,0,4,0
Y_CHIP_BIN,y chip bin identification,-9999,9999,none,80A,0,4,0
Y_CHIP_ID,y chip identification,-9999,9999,none,80A,0,4,0
Y_COC_SN,y CoC serial no.,-9999,9999,none,80A,0,4,0
Y_WAFER_ID,y wafer identification,-9999,9999,none,80A,0,4,0
