COMMENTS,comments,-9999,9999,none,256A,0,3,0,
EQUIPMENT_ID,Equipment ID,-9999,9999,none,&,0,4,0,
FIT_COEFFICIENT_TEMP1_FILE,Fit data for Temperature 1,-9999,9999,none,&,0,3,0,
FIT_COEFFICIENT_TEMP2_FILE,Fit data for Temperature 2,-9999,9999,none,&,0,3,0,
FIT_COEFFICIENT_TEMP3_FILE,Fit data for Temperature 3,-9999,9999,none,&,0,3,0,
FIT_CORRE_XIP_WL1_TEMP1,Sinusoidal fit correlation for XI for Wavelength 1 at Temperature 1,-9999,9999,none,#0.00,0,2,0,
FIT_CORRE_XIP_WL1_TEMP2,Sinusoidal fit correlation for XI for Wavelength 1 at Temperature 2,-9999,9999,none,#0.00,0,2,0,
FIT_CORRE_XIP_WL1_TEMP3,Sinusoidal fit correlation for XI for Wavelength 1 at Temperature 3,-9999,9999,none,#0.00,0,2,0,
FIT_CORRE_XIP_WL2_TEMP1,Sinusoidal fit correlation for XI for Wavelength 2 at Temperature 1,-9999,9999,none,#0.00,0,2,0,
FIT_CORRE_XIP_WL2_TEMP2,Sinusoidal fit correlation for XI for Wavelength 2 at Temperature 2,-9999,9999,none,#0.00,0,2,0,
FIT_CORRE_XIP_WL2_TEMP3,Sinusoidal fit correlation for XI for Wavelength 2 at Temperature 3,-9999,9999,none,#0.00,0,2,0,
FIT_CORRE_XIP_WL3_TEMP1,Sinusoidal fit correlation for XI for Wavelength 3 at Temperature 1,-9999,9999,none,#0.00,0,2,0,
FIT_CORRE_XIP_WL3_TEMP2,Sinusoidal fit correlation for XI for Wavelength 3 at Temperature 2,-9999,9999,none,#0.00,0,2,0,
FIT_CORRE_XIP_WL3_TEMP3,Sinusoidal fit correlation for XI for Wavelength 3 at Temperature 3,-9999,9999,none,#0.00,0,2,0,
FIT_CORRE_XQP_WL1_TEMP1,Sinusoidal fit correlation for XQ for Wavelength 1 at Temperature 1,-9999,9999,none,#0.00,0,2,0,
FIT_CORRE_XQP_WL1_TEMP2,Sinusoidal fit correlation for XQ for Wavelength 1 at Temperature 2,-9999,9999,none,#0.00,0,2,0,
FIT_CORRE_XQP_WL1_TEMP3,Sinusoidal fit correlation for XQ for Wavelength 1 at Temperature 3,-9999,9999,none,#0.00,0,2,0,
FIT_CORRE_XQP_WL2_TEMP1,Sinusoidal fit correlation for XQ for Wavelength 2 at Temperature 1,-9999,9999,none,#0.00,0,2,0,
FIT_CORRE_XQP_WL2_TEMP2,Sinusoidal fit correlation for XQ for Wavelength 2 at Temperature 2,-9999,9999,none,#0.00,0,2,0,
FIT_CORRE_XQP_WL2_TEMP3,Sinusoidal fit correlation for XQ for Wavelength 2 at Temperature 3,-9999,9999,none,#0.00,0,2,0,
FIT_CORRE_XQP_WL3_TEMP1,Sinusoidal fit correlation for XQ for Wavelength 3 at Temperature 1,-9999,9999,none,#0.00,0,2,0,
FIT_CORRE_XQP_WL3_TEMP2,Sinusoidal fit correlation for XQ for Wavelength 3 at Temperature 2,-9999,9999,none,#0.00,0,2,0,
FIT_CORRE_XQP_WL3_TEMP3,Sinusoidal fit correlation for XQ for Wavelength 3 at Temperature 3,-9999,9999,none,#0.00,0,2,0,
FIT_CORRE_YIP_WL1_TEMP1,Sinusoidal fit correlation for YI for Wavelength 1 at Temperature 1,-9999,9999,none,#0.00,0,2,0,
FIT_CORRE_YIP_WL1_TEMP2,Sinusoidal fit correlation for YI for Wavelength 1 at Temperature 2,-9999,9999,none,#0.00,0,2,0,
FIT_CORRE_YIP_WL1_TEMP3,Sinusoidal fit correlation for YI for Wavelength 1 at Temperature 3,-9999,9999,none,#0.00,0,2,0,
FIT_CORRE_YIP_WL2_TEMP1,Sinusoidal fit correlation for YI for Wavelength 2 at Temperature 1,-9999,9999,none,#0.00,0,2,0,
FIT_CORRE_YIP_WL2_TEMP2,Sinusoidal fit correlation for YI for Wavelength 2 at Temperature 2,-9999,9999,none,#0.00,0,2,0,
FIT_CORRE_YIP_WL2_TEMP3,Sinusoidal fit correlation for YI for Wavelength 2 at Temperature 3,-9999,9999,none,#0.00,0,2,0,
FIT_CORRE_YIP_WL3_TEMP1,Sinusoidal fit correlation for YI for Wavelength 3 at Temperature 1,-9999,9999,none,#0.00,0,2,0,
FIT_CORRE_YIP_WL3_TEMP2,Sinusoidal fit correlation for YI for Wavelength 3 at Temperature 2,-9999,9999,none,#0.00,0,2,0,
FIT_CORRE_YIP_WL3_TEMP3,Sinusoidal fit correlation for YI for Wavelength 3 at Temperature 3,-9999,9999,none,#0.00,0,2,0,
FIT_CORRE_YQP_WL1_TEMP1,Sinusoidal fit correlation for YQ for Wavelength 1 at Temperature 1,-9999,9999,none,#0.00,0,2,0,
FIT_CORRE_YQP_WL1_TEMP2,Sinusoidal fit correlation for YQ for Wavelength 1 at Temperature 2,-9999,9999,none,#0.00,0,2,0,
FIT_CORRE_YQP_WL1_TEMP3,Sinusoidal fit correlation for YQ for Wavelength 1 at Temperature 3,-9999,9999,none,#0.00,0,2,0,
FIT_CORRE_YQP_WL2_TEMP1,Sinusoidal fit correlation for YQ for Wavelength 2 at Temperature 1,-9999,9999,none,#0.00,0,2,0,
FIT_CORRE_YQP_WL2_TEMP2,Sinusoidal fit correlation for YQ for Wavelength 2 at Temperature 2,-9999,9999,none,#0.00,0,2,0,
FIT_CORRE_YQP_WL2_TEMP3,Sinusoidal fit correlation for YQ for Wavelength 2 at Temperature 3,-9999,9999,none,#0.00,0,2,0,
FIT_CORRE_YQP_WL3_TEMP1,Sinusoidal fit correlation for YQ for Wavelength 3 at Temperature 1,-9999,9999,none,#0.00,0,2,0,
FIT_CORRE_YQP_WL3_TEMP2,Sinusoidal fit correlation for YQ for Wavelength 3 at Temperature 2,-9999,9999,none,#0.00,0,2,0,
FIT_CORRE_YQP_WL3_TEMP3,Sinusoidal fit correlation for YQ for Wavelength 3 at Temperature 3,-9999,9999,none,#0.00,0,2,0,
ICC_TIA_X_TEMP1,TIA X current at Temperature 1,80,9999,mA,#0.00,0,2,0,
ICC_TIA_X_TEMP2,TIA X current at Temperature 2,80,9999,mA,#0.00,0,2,0,
ICC_TIA_X_TEMP3,TIA X current at Temperature 3,80,9999,mA,#0.00,0,2,0,
ICC_TIA_Y_TEMP1,TIA Y current at Temperature 1,80,9999,mA,#0.00,0,2,0,
ICC_TIA_Y_TEMP2,TIA Y current at Temperature 2,80,9999,mA,#0.00,0,2,0,
ICC_TIA_Y_TEMP3,TIA Y current at Temperature 3,80,9999,mA,#0.00,0,2,0,
NODE,Node Number,-9999,9999,none,0,0,1,0,
OPERATOR_ID,Operator identifier,-9999,9999,none,&,0,4,0,
PART_CODE,Product code,-9999,9999,none,20A,0,5,0,
PHASE_ERR_XIP_XQP_WL1_TEMP1,Phase error between XIP and XQP for Wavelength 1 at Temperature 1,-9999,9999,degree,#0.00,0,2,0,
PHASE_ERR_XIP_XQP_WL1_TEMP2,Phase error between XIP and XQP for Wavelength 1 at Temperature 2,-9999,9999,degree,#0.00,0,2,0,
PHASE_ERR_XIP_XQP_WL1_TEMP3,Phase error between XIP and XQP for Wavelength 1 at Temperature 3,-9999,9999,degree,#0.00,0,2,0,
PHASE_ERR_XIP_XQP_WL2_TEMP1,Phase error between XIP and XQP for Wavelength 2 at Temperature 1,-9999,9999,degree,#0.00,0,2,0,
PHASE_ERR_XIP_XQP_WL2_TEMP2,Phase error between XIP and XQP for Wavelength 2 at Temperature 2,-9999,9999,degree,#0.00,0,2,0,
PHASE_ERR_XIP_XQP_WL2_TEMP3,Phase error between XIP and XQP for Wavelength 2 at Temperature 3,-9999,9999,degree,#0.00,0,2,0,
PHASE_ERR_XIP_XQP_WL3_TEMP1,Phase error between XIP and XQP for Wavelength 3 at Temperature 1,-9999,9999,degree,#0.00,0,2,0,
PHASE_ERR_XIP_XQP_WL3_TEMP2,Phase error between XIP and XQP for Wavelength 3 at Temperature 2,-9999,9999,degree,#0.00,0,2,0,
PHASE_ERR_XIP_XQP_WL3_TEMP3,Phase error between XIP and XQP for Wavelength 3 at Temperature 3,-9999,9999,degree,#0.00,0,2,0,
PHASE_ERR_YIP_YQP_WL1_TEMP1,Phase error between YIP and YQP for Wavelength 1 at Temperature 1,-9999,9999,degree,#0.00,0,2,0,
PHASE_ERR_YIP_YQP_WL1_TEMP2,Phase error between YIP and YQP for Wavelength 1 at Temperature 2,-9999,9999,degree,#0.00,0,2,0,
PHASE_ERR_YIP_YQP_WL1_TEMP3,Phase error between YIP and YQP for Wavelength 1 at Temperature 3,-9999,9999,degree,#0.00,0,2,0,
PHASE_ERR_YIP_YQP_WL2_TEMP1,Phase error between YIP and YQP for Wavelength 2 at Temperature 1,-9999,9999,degree,#0.00,0,2,0,
PHASE_ERR_YIP_YQP_WL2_TEMP2,Phase error between YIP and YQP for Wavelength 2 at Temperature 2,-9999,9999,degree,#0.00,0,2,0,
PHASE_ERR_YIP_YQP_WL2_TEMP3,Phase error between YIP and YQP for Wavelength 2 at Temperature 3,-9999,9999,degree,#0.00,0,2,0,
PHASE_ERR_YIP_YQP_WL3_TEMP1,Phase error between YIP and YQP for Wavelength 3 at Temperature 1,-9999,9999,degree,#0.00,0,2,0,
PHASE_ERR_YIP_YQP_WL3_TEMP2,Phase error between YIP and YQP for Wavelength 3 at Temperature 2,-9999,9999,degree,#0.00,0,2,0,
PHASE_ERR_YIP_YQP_WL3_TEMP3,Phase error between YIP and YQP for Wavelength 3 at Temperature 3,-9999,9999,degree,#0.00,0,2,0,
PHASE_TEMP1_FILE,Phase data for Temperature 1,-9999,9999,none,&,0,3,0,
PHASE_TEMP2_FILE,Phase data for Temperature 2,-9999,9999,none,&,0,3,0,
PHASE_TEMP3_FILE,Phase data for Temperature 3,-9999,9999,none,&,0,3,0,
PHASE_XIP_WL1_TEMP1,Phase angle for XI for Wavelength 1 at Temperature 1,-9999,9999,degree,#0.00,0,2,0,
PHASE_XIP_WL1_TEMP2,Phase angle for XI for Wavelength 1 at Temperature 2,-9999,9999,degree,#0.00,0,2,0,
PHASE_XIP_WL1_TEMP3,Phase angle for XI for Wavelength 1 at Temperature 3,-9999,9999,degree,#0.00,0,2,0,
PHASE_XIP_WL2_TEMP1,Phase angle for XI for Wavelength 2 at Temperature 1,-9999,9999,degree,#0.00,0,2,0,
PHASE_XIP_WL2_TEMP2,Phase angle for XI for Wavelength 2 at Temperature 2,-9999,9999,degree,#0.00,0,2,0,
PHASE_XIP_WL2_TEMP3,Phase angle for XI for Wavelength 2 at Temperature 3,-9999,9999,degree,#0.00,0,2,0,
PHASE_XIP_WL3_TEMP1,Phase angle for XI for Wavelength 3 at Temperature 1,-9999,9999,degree,#0.00,0,2,0,
PHASE_XIP_WL3_TEMP2,Phase angle for XI for Wavelength 3 at Temperature 2,-9999,9999,degree,#0.00,0,2,0,
PHASE_XIP_WL3_TEMP3,Phase angle for XI for Wavelength 3 at Temperature 3,-9999,9999,degree,#0.00,0,2,0,
PHASE_XQP_WL1_TEMP1,Phase angle for XQ for Wavelength 1 at Temperature 1,-9999,9999,degree,#0.00,0,2,0,
PHASE_XQP_WL1_TEMP2,Phase angle for XQ for Wavelength 1 at Temperature 2,-9999,9999,degree,#0.00,0,2,0,
PHASE_XQP_WL1_TEMP3,Phase angle for XQ for Wavelength 1 at Temperature 3,-9999,9999,degree,#0.00,0,2,0,
PHASE_XQP_WL2_TEMP1,Phase angle for XQ for Wavelength 2 at Temperature 1,-9999,9999,degree,#0.00,0,2,0,
PHASE_XQP_WL2_TEMP2,Phase angle for XQ for Wavelength 2 at Temperature 2,-9999,9999,degree,#0.00,0,2,0,
PHASE_XQP_WL2_TEMP3,Phase angle for XQ for Wavelength 2 at Temperature 3,-9999,9999,degree,#0.00,0,2,0,
PHASE_XQP_WL3_TEMP1,Phase angle for XQ for Wavelength 3 at Temperature 1,-9999,9999,degree,#0.00,0,2,0,
PHASE_XQP_WL3_TEMP2,Phase angle for XQ for Wavelength 3 at Temperature 2,-9999,9999,degree,#0.00,0,2,0,
PHASE_XQP_WL3_TEMP3,Phase angle for XQ for Wavelength 3 at Temperature 3,-9999,9999,degree,#0.00,0,2,0,
PHASE_YIP_WL1_TEMP1,Phase angle for YI for Wavelength 1 at Temperature 1,-9999,9999,degree,#0.00,0,2,0,
PHASE_YIP_WL1_TEMP2,Phase angle for YI for Wavelength 1 at Temperature 2,-9999,9999,degree,#0.00,0,2,0,
PHASE_YIP_WL1_TEMP3,Phase angle for YI for Wavelength 1 at Temperature 3,-9999,9999,degree,#0.00,0,2,0,
PHASE_YIP_WL2_TEMP1,Phase angle for YI for Wavelength 2 at Temperature 1,-9999,9999,degree,#0.00,0,2,0,
PHASE_YIP_WL2_TEMP2,Phase angle for YI for Wavelength 2 at Temperature 2,-9999,9999,degree,#0.00,0,2,0,
PHASE_YIP_WL2_TEMP3,Phase angle for YI for Wavelength 2 at Temperature 3,-9999,9999,degree,#0.00,0,2,0,
PHASE_YIP_WL3_TEMP1,Phase angle for YI for Wavelength 3 at Temperature 1,-9999,9999,degree,#0.00,0,2,0,
PHASE_YIP_WL3_TEMP2,Phase angle for YI for Wavelength 3 at Temperature 2,-9999,9999,degree,#0.00,0,2,0,
PHASE_YIP_WL3_TEMP3,Phase angle for YI for Wavelength 3 at Temperature 3,-9999,9999,degree,#0.00,0,2,0,
PHASE_YQP_WL1_TEMP1,Phase angle for YQ for Wavelength 1 at Temperature 1,-9999,9999,degree,#0.00,0,2,0,
PHASE_YQP_WL1_TEMP2,Phase angle for YQ for Wavelength 1 at Temperature 2,-9999,9999,degree,#0.00,0,2,0,
PHASE_YQP_WL1_TEMP3,Phase angle for YQ for Wavelength 1 at Temperature 3,-9999,9999,degree,#0.00,0,2,0,
PHASE_YQP_WL2_TEMP1,Phase angle for YQ for Wavelength 2 at Temperature 1,-9999,9999,degree,#0.00,0,2,0,
PHASE_YQP_WL2_TEMP2,Phase angle for YQ for Wavelength 2 at Temperature 2,-9999,9999,degree,#0.00,0,2,0,
PHASE_YQP_WL2_TEMP3,Phase angle for YQ for Wavelength 2 at Temperature 3,-9999,9999,degree,#0.00,0,2,0,
PHASE_YQP_WL3_TEMP1,Phase angle for YQ for Wavelength 3 at Temperature 1,-9999,9999,degree,#0.00,0,2,0,
PHASE_YQP_WL3_TEMP2,Phase angle for YQ for Wavelength 3 at Temperature 2,-9999,9999,degree,#0.00,0,2,0,
PHASE_YQP_WL3_TEMP3,Phase angle for YQ for Wavelength 3 at Temperature 3,-9999,9999,degree,#0.00,0,2,0,
POL_CURRENT_TEMP1_FILE,PD Photocurrent at Temperature 1,-9999,9999,none,&,0,3,0,
POL_CURRENT_TEMP2_FILE,PD Photocurrent at Temperature 2,-9999,9999,none,&,0,3,0,
POL_CURRENT_TEMP3_FILE,PD Photocurrent at Temperature 3,-9999,9999,none,&,0,3,0,
SOFTWARE_IDENT,Software Identity,-9999,9999,none,256A,0,3,0,
SPEC_ID,Specification ID,-9999,9999,none,80A,0,4,0,
TC_ITLA_POWER_SET,ITLA optical power,13,13,dBm,#0.00,0,2,0,
TC_PD_REVERSE_BIAS,reverse bias voltage for working PD,5,5,V,#0.00,0,2,0,
TC_TIA_VCC,TIA supply voltage,3.3,3.3,V,#0.00,0,2,0,
TEMPERATURE_1,Test temperature 1,-9999,9999,degC,#0.0,0,2,0,
TEMPERATURE_2,Test temperature 2,-9999,9999,degC,#0.0,0,2,0,
TEMPERATURE_3,Test temperature 3,-9999,9999,degC,#0.0,0,2,0,
TEST_STATUS,Test status,-9999,9999,none,14A,0,6,0,
TEST_TIME,Test Time,-9999,9999,minute,#0.00,0,2,0,
TEST_WAVELENGTH_1,Test wavelength 1,-9999,9999,nm,#0.0,0,2,0,
TEST_WAVELENGTH_2,Test wavelength 2,-9999,9999,nm,#0.0,0,2,0,
TEST_WAVELENGTH_3,Test wavelength 3,-9999,9999,nm,#0.0,0,2,0,
TIME_DATE,Time and Date,-9999,9999,none,14A,0,6,0,
X_CHIP_BIN,X Chip bin,-9999,9999,none,80A,0,4,0,
X_CHIP_ID,X Chip Id,-9999,9999,none,80A,0,4,0,
X_COC_SN,X Chip-on-carrier serial number,-9999,9999,none,80A,0,4,0,
X_WAFER_ID,Wafer ID X chip,-9999,9999,none,80A,0,4,0,
XIP_CURRENT_WL1,Photocurrent in XIP PD at Wavelength 1,-9999,9999,mA,#0.000,0,2,0,
XIP_CURRENT_WL2,Photocurrent in XIP PD at Wavelength 2,-9999,9999,mA,#0.000,0,2,0,
XIP_CURRENT_WL3,Photocurrent in XIP PD at Wavelength 3,-9999,9999,mA,#0.000,0,2,0,
Y_CHIP_BIN,Y chip bin,-9999,9999,none,80A,0,4,0,
Y_CHIP_ID,Y chip Id,-9999,9999,none,80A,0,4,0,
Y_COC_SN,Y Chip-on-carrier serial number,-9999,9999,none,80A,0,4,0,
Y_WAFER_ID,Wafer ID Y chip,-9999,9999,none,80A,0,4,0,
YIP_CURRENT_WL1,Photocurrent in YIP PD at Wavelength 1,-9999,9999,mA,#0.000,0,2,0,
YIP_CURRENT_WL2,Photocurrent in YIP PD at Wavelength 2,-9999,9999,mA,#0.000,0,2,0,
YIP_CURRENT_WL3,Photocurrent in YIP PD at Wavelength 3,-9999,9999,mA,#0.000,0,2,0,
