COMMENTS,comments,-9999,9999,none,&,0,4,0
COMPUTER_ID,Computer name,-9999,9999,none,&,0,5,0
DATE_1900,Date in 1900 format represeting number of days since 01 Jan 1900 (plus two),-9999,9999,days,#0.0000,0,2,0
DAY,Day of week,-9999,9999,none,&,0,5,0
DEVICE_COMPLETE,Device Complete flag,1,1,none,0,0,1,0
EQUIPMENT_ID,Equipment ID,-9999,9999,none,&,0,4,0
IDLE_TIME,Idle Time,-9999,9999,s,#0.000,0,2,0
LOT_ID,Lot ID that the device entered the test rig,-9999,9999,none,&,0,5,0
MATRIX_NUMBER,Matrix Number (Global ID),-9999,9999,none,&,0,5,0
NODE,Node Number,-9999,9999,none,&,0,1,0
OPERATOR,Operator Identity,-9999,9999,none,&,0,4,0
PROCESS_TIME,Process time (time taken for the process excluding MagiX and PCAS),-9999,9999,s,#0.000,0,2,0
RELEASE_NO,AC Extinction ratio with no atten and no right bias offset,-9999,9999,none,0,0,1,0
SIGNATURE,Electronic signature,-9999,9999,none,&,0,4,0
SOFTWARE_ID,Software ID,-9999,9999,none,&,0,4,0
TEST_STATUS,Test status,-9999,9999,none,&,0,5,0
TEST_TIME,Test Time,-9999,9999,s,#0.000,0,2,0
TIME,Time,-9999,9999,hh:mm:ss,hh:mm:ss,0,5,0
TIME_DATE,Time and Date,-9999,9999,none,14A,0,6,0
TRACK_ACTION,WIP Tracking Action,-9999,9999,none,&,0,5,0
TRACK_CODE,WIP Tracking Code,-9999,9999,none,&,0,5,0
TRACK_IN,Flag to indicate that the device was successfully tracked in.,-9999,9999,boolean,0,0,1,0
VARIANT_TYPE,Variant Type,-9999,9999,none,&,0,5,0
VOLTAGE_PD,Photodiode bias voltage,5,5,V,&,0,2,0
VOLTAGE_TIA,TIA bias voltage,3.3,3.3,V,&,0,2,0
WAFER_ID_X,Wafer ID X chip,-9999,9999,none,&,0,5,0
WAFER_ID_Y,Wafer ID Y chip,-9999,9999,none,&,0,5,0
WEEK_NUMBER,Week number,-9999,9999,week,0,0,1,0
TC_ITLA_POWER_LOCAL,,-9999,9999,dBm,#0.00,0,2,0
TC_ITLA_POWER_SIGNAL,,-9999,9999,dBm,#0.00,0,2,0
X_CHIP_BIN,,-9999,9999,none,&,0,4,0
X_CHIP_ID,,-9999,9999,none,&,0,4,0
X_COC_SN,,-9999,9999,none,&,0,4,0
Y_CHIP_BIN,,-9999,9999,none,&,0,4,0
Y_CHIP_ID,,-9999,9999,none,&,0,4,0
Y_COC_SN,,-9999,9999,none,&,0,4,0
ATTEN_X_SIG_35C_1529NM_GRAD,Gradient of attenuation on X chip at 35 degC,0.1,25,dB/V,#0.00,0,2,0
ATTEN_X_SIG_35C_1529NM_MAX,Maximum attenuation on X chip at 35 degC,15,9999,dB,#0.00,0,2,0
ATTEN_X_SIG_35C_1569NM_GRAD,Gradient of attenuation on X chip at 35 degC,0.1,25,dB/V,#0.00,0,2,0
ATTEN_X_SIG_35C_1569NM_MAX,Maximum attenuation on X chip at 35 degC,15,9999,dB,#0.00,0,2,0
ATTEN_Y_SIG_35C_1529NM_GRAD,Gradient of attenuation on Y chip at 35 degC,0.1,25,dB/V,#0.00,0,2,0
ATTEN_Y_SIG_35C_1529NM_MAX,Maximum attenuation on Y chip at 35 degC,15,9999,dB,#0.00,0,2,0
ATTEN_Y_SIG_35C_1569NM_GRAD,Gradient of attenuation on Y chip at 35 degC,0.1,25,dB/V,#0.00,0,2,0
ATTEN_Y_SIG_35C_1569NM_MAX,Maximum attenuation on Y chip at 35 degC,15,9999,dB,#0.00,0,2,0
CMRR_XI_LO_35C_AVG,Average common mode rejection ratio of XI PDs with local oscillator at 35C,-9999,-20,dBe,#0.00,0,2,0
CMRR_XI_LO_35C_MAX,Maximum common mode rejection ratio of XI PDs with local oscillator at 35C,-9999,-20,dBe,#0.00,0,2,0
CMRR_XI_LO_35C_MIN,Minimum common mode rejection ratio of XI PDs with local oscillator at 35C,-9999,-20,dBe,#0.00,0,2,0
CMRR_XI_SIG_35C_AVG,Average common mode rejection ratio of XI PDs with signal at 35C,-9999,-22,dBe,#0.00,0,2,0
CMRR_XI_SIG_35C_MAX,Maximum common mode rejection ratio of XI PDs with signal at 35C,-9999,-22,dBe,#0.00,0,2,0
CMRR_XI_SIG_35C_MIN,Minimum common mode rejection ratio of XI PDs with signal at 35C,-9999,-22,dBe,#0.00,0,2,0
CMRR_XQ_LO_35C_AVG,Average common mode rejection ratio of XQ PDs with local oscillator at 35C,-9999,-20,dBe,#0.00,0,2,0
CMRR_XQ_LO_35C_MAX,Maximum common mode rejection ratio of XQ PDs with local oscillator at 35C,-9999,-20,dBe,#0.00,0,2,0
CMRR_XQ_LO_35C_MIN,Minimum common mode rejection ratio of XQ PDs with local oscillator at 35C,-9999,-20,dBe,#0.00,0,2,0
CMRR_XQ_SIG_35C_AVG,Average common mode rejection ratio of XQ PDs with signal at 35C,-9999,-22,dBe,#0.00,0,2,0
CMRR_XQ_SIG_35C_MAX,Maximum common mode rejection ratio of XQ PDs with signal at 35C,-9999,-22,dBe,#0.00,0,2,0
CMRR_XQ_SIG_35C_MIN,Minimum common mode rejection ratio of XQ PDs with signal at 35C,-9999,-22,dBe,#0.00,0,2,0
CMRR_YI_LO_35C_AVG,Average common mode rejection ratio of YI PDs with local oscillator at 35C,-9999,-20,dBe,#0.00,0,2,0
CMRR_YI_LO_35C_MAX,Maximum common mode rejection ratio of YI PDs with local oscillator at 35C,-9999,-20,dBe,#0.00,0,2,0
CMRR_YI_LO_35C_MIN,Minimum common mode rejection ratio of YI PDs with local oscillator at 35C,-9999,-20,dBe,#0.00,0,2,0
CMRR_YI_SIG_35C_AVG,Average common mode rejection ratio of YI PDs with signal at 35C,-9999,-22,dBe,#0.00,0,2,0
CMRR_YI_SIG_35C_MAX,Maximum common mode rejection ratio of YI PDs with signal at 35C,-9999,-22,dBe,#0.00,0,2,0
CMRR_YI_SIG_35C_MIN,Minimum common mode rejection ratio of YI PDs with signal at 35C,-9999,-22,dBe,#0.00,0,2,0
CMRR_YQ_LO_35C_AVG,Average common mode rejection ratio of YQ PDs with local oscillator at 35C,-9999,-20,dBe,#0.00,0,2,0
CMRR_YQ_LO_35C_MAX,Maximum common mode rejection ratio of YQ PDs with local oscillator at 35C,-9999,-20,dBe,#0.00,0,2,0
CMRR_YQ_LO_35C_MIN,Minimum common mode rejection ratio of YQ PDs with local oscillator at 35C,-9999,-20,dBe,#0.00,0,2,0
CMRR_YQ_SIG_35C_AVG,Average common mode rejection ratio of YQ PDs with signal at 35C,-9999,-22,dBe,#0.00,0,2,0
CMRR_YQ_SIG_35C_MAX,Maximum common mode rejection ratio of YQ PDs with signal at 35C,-9999,-22,dBe,#0.00,0,2,0
CMRR_YQ_SIG_35C_MIN,Minimum common mode rejection ratio of YQ PDs with signal at 35C,-9999,-22,dBe,#0.00,0,2,0
DARKCURRENT_TAP_35C,Dark current of MPD at 35 degC,-9999,1,nA,#0.0,0,2,0
DARKCURRENT_XIN_35C,Dark current of XI2 PD at 35 degC,5,300,nA,#0.0,0,2,0
DARKCURRENT_XIP_35C,Dark current of XI1 PD at 35 degC,5,300,nA,#0.0,0,2,0
DARKCURRENT_XQN_35C,Dark current of XQ2 PD at 35 degC,5,300,nA,#0.0,0,2,0
DARKCURRENT_XQP_35C,Dark current of XQ1 PD at 35 degC,5,300,nA,#0.0,0,2,0
DARKCURRENT_YIN_35C,Dark current of YI2 PD at 35 degC,5,300,nA,#0.0,0,2,0
DARKCURRENT_YIP_35C,Dark current of YI1 PD at 35 degC,5,300,nA,#0.0,0,2,0
DARKCURRENT_YQN_35C,Dark current of YQ2 PD at 35 degC,5,300,nA,#0.0,0,2,0
DARKCURRENT_YQP_35C,Dark current of YQ1 PD at 35 degC,5,300,nA,#0.0,0,2,0
DEV_X_LO_35C_FILE,x deviation for local input at 35C,-9999,9999,none,&,0,3,0
DEV_X_SIG_35C_FILE,x deviation for signal input at 35C,-9999,9999,none,&,0,3,0
DEV_XIN_LO_35C_AVG,Average deviation from average of XI2 PD with local oscillator at 35C,-1.24,1.24,dB,#0.00,0,2,0
DEV_XIN_LO_35C_MAX,Maximum deviation from average of XI2 PD with local oscillator at 35C,-1.24,1.24,dB,#0.00,0,2,0
DEV_XIN_LO_35C_MIN,Minimum deviation from average of XI2 PD with local oscillator at 35C,-1.24,1.24,dB,#0.00,0,2,0
DEV_XIN_SIG_35C_AVG,Average deviation from average of XI2 PD with signal at 35C,-1.24,1.24,dB,#0.00,0,2,0
DEV_XIN_SIG_35C_MAX,Maximum deviation from average of XI2 PD with signal at 35C,-1.24,1.24,dB,#0.00,0,2,0
DEV_XIN_SIG_35C_MIN,Minimum deviation from average of XI2 PD with signal at 35C,-1.24,1.24,dB,#0.00,0,2,0
DEV_XIP_LO_35C_AVG,Average deviation from average of XI1 PD with local oscillator at 35C,-1.24,1.24,dB,#0.00,0,2,0
DEV_XIP_LO_35C_MAX,Maximum deviation from average of XI1 PD with local oscillator at 35C,-1.24,1.24,dB,#0.00,0,2,0
DEV_XIP_LO_35C_MIN,Minimum deviation from average of XI1 PD with local oscillator at 35C,-1.24,1.24,dB,#0.00,0,2,0
DEV_XIP_SIG_35C_AVG,Average deviation from average of XI1 PD with signal at 35C,-1.24,1.24,dB,#0.00,0,2,0
DEV_XIP_SIG_35C_MAX,Maximum deviation from average of XI1 PD with signal at 35C,-1.24,1.24,dB,#0.00,0,2,0
DEV_XIP_SIG_35C_MIN,Minimum deviation from average of XI1 PD with signal at 35C,-1.24,1.24,dB,#0.00,0,2,0
DEV_XQN_LO_35C_AVG,Average deviation from average of XQ2 PD with local oscillator at 35C,-1.24,1.24,dB,#0.00,0,2,0
DEV_XQN_LO_35C_MAX,Maximum deviation from average of XQ2 PD with local oscillator at 35C,-1.24,1.24,dB,#0.00,0,2,0
DEV_XQN_LO_35C_MIN,Minimum deviation from average of XQ2 PD with local oscillator at 35C,-1.24,1.24,dB,#0.00,0,2,0
DEV_XQN_SIG_35C_AVG,Average deviation from average of XQ2 PD with signal at 35C,-1.24,1.24,dB,#0.00,0,2,0
DEV_XQN_SIG_35C_MAX,Maximum deviation from average of XQ2 PD with signal at 35C,-1.24,1.24,dB,#0.00,0,2,0
DEV_XQN_SIG_35C_MIN,Minimum deviation from average of XQ2 PD with signal at 35C,-1.24,1.24,dB,#0.00,0,2,0
DEV_XQP_LO_35C_AVG,Average deviation from average of XQ1 PD with local oscillator at 35C,-1.24,1.24,dB,#0.00,0,2,0
DEV_XQP_LO_35C_MAX,Maximum deviation from average of XQ1 PD with local oscillator at 35C,-1.24,1.24,dB,#0.00,0,2,0
DEV_XQP_LO_35C_MIN,Minimum deviation from average of XQ1 PD with local oscillator at 35C,-1.24,1.24,dB,#0.00,0,2,0
DEV_XQP_SIG_35C_AVG,Average deviation from average of XQ1 PD with signal at 35C,-1.24,1.24,dB,#0.00,0,2,0
DEV_XQP_SIG_35C_MAX,Maximum deviation from average of XQ1 PD with signal at 35C,-1.24,1.24,dB,#0.00,0,2,0
DEV_XQP_SIG_35C_MIN,Minimum deviation from average of XQ1 PD with signal at 35C,-1.24,1.24,dB,#0.00,0,2,0
DEV_Y_LO_35C_FILE,y deviation for local input at 35C,-9999,9999,none,&,0,3,0
DEV_Y_SIG_35C_FILE,y deviation for signal input at 35C,-9999,9999,none,&,0,3,0
DEV_YIN_LO_35C_AVG,Average deviation from average of YI2 PD with local oscillator at 35C,-1.24,1.24,dB,#0.00,0,2,0
DEV_YIN_LO_35C_MAX,Maximum deviation from average of YI2 PD with local oscillator at 35C,-1.24,1.24,dB,#0.00,0,2,0
DEV_YIN_LO_35C_MIN,Minimum deviation from average of YI2 PD with local oscillator at 35C,-1.24,1.24,dB,#0.00,0,2,0
DEV_YIN_SIG_35C_AVG,Average deviation from average of YI2 PD with signal at 35C,-1.24,1.24,dB,#0.00,0,2,0
DEV_YIN_SIG_35C_MAX,Maximum deviation from average of YI2 PD with signal at 35C,-1.24,1.24,dB,#0.00,0,2,0
DEV_YIN_SIG_35C_MIN,Minimum deviation from average of YI2 PD with signal at 35C,-1.24,1.24,dB,#0.00,0,2,0
DEV_YIP_LO_35C_AVG,Average deviation from average of YI1 PD with local oscillator at 35C,-1.24,1.24,dB,#0.00,0,2,0
DEV_YIP_LO_35C_MAX,Maximum deviation from average of YI1 PD with local oscillator at 35C,-1.24,1.24,dB,#0.00,0,2,0
DEV_YIP_LO_35C_MIN,Minimum deviation from average of YI1 PD with local oscillator at 35C,-1.24,1.24,dB,#0.00,0,2,0
DEV_YIP_SIG_35C_AVG,Average deviation from average of YI1 PD with signal at 35C,-1.24,1.24,dB,#0.00,0,2,0
DEV_YIP_SIG_35C_MAX,Maximum deviation from average of YI1 PD with signal at 35C,-1.24,1.24,dB,#0.00,0,2,0
DEV_YIP_SIG_35C_MIN,Minimum deviation from average of YI1 PD with signal at 35C,-1.24,1.24,dB,#0.00,0,2,0
DEV_YQN_LO_35C_AVG,Average deviation from average of YQ2 PD with local oscillator at 35C,-1.24,1.24,dB,#0.00,0,2,0
DEV_YQN_LO_35C_MAX,Maximum deviation from average of YQ2 PD with local oscillator at 35C,-1.24,1.24,dB,#0.00,0,2,0
DEV_YQN_LO_35C_MIN,Minimum deviation from average of YQ2 PD with local oscillator at 35C,-1.24,1.24,dB,#0.00,0,2,0
DEV_YQN_SIG_35C_AVG,Average deviation from average of YQ2 PD with signal at 35C,-1.24,1.24,dB,#0.00,0,2,0
DEV_YQN_SIG_35C_MAX,Maximum deviation from average of YQ2 PD with signal at 35C,-1.24,1.24,dB,#0.00,0,2,0
DEV_YQN_SIG_35C_MIN,Minimum deviation from average of YQ2 PD with signal at 35C,-1.24,1.24,dB,#0.00,0,2,0
DEV_YQP_LO_35C_AVG,Average deviation from average of YQ1 PD with local oscillator at 35C,-1.24,1.24,dB,#0.00,0,2,0
DEV_YQP_LO_35C_MAX,Maximum deviation from average of YQ1 PD with local oscillator at 35C,-1.24,1.24,dB,#0.00,0,2,0
DEV_YQP_LO_35C_MIN,Minimum deviation from average of YQ1 PD with local oscillator at 35C,-1.24,1.24,dB,#0.00,0,2,0
DEV_YQP_SIG_35C_AVG,Average deviation from average of YQ1 PD with signal at 35C,-1.24,1.24,dB,#0.00,0,2,0
DEV_YQP_SIG_35C_MAX,Maximum deviation from average of YQ1 PD with signal at 35C,-1.24,1.24,dB,#0.00,0,2,0
DEV_YQP_SIG_35C_MIN,Minimum deviation from average of YQ1 PD with signal at 35C,-1.24,1.24,dB,#0.00,0,2,0
ICC_TIA_X_35C,TIA_X current draw at 35 degC,140,170,mA,#0.00,0,2,0
ICC_TIA_Y_35C,TIA_Y current draw at 35 degC,140,170,mA,#0.00,0,2,0
MAX_LANE_CMRR_LO_35C,Maximum common mode rejection ratio LO at 35C,-9999,-20,dBe,#0.00,0,2,0
MAX_LANE_CMRR_SIG_35C,Maximum common mode rejection ratio Signal at 35C,-9999,-22,dBe,#0.00,0,2,0
MAX_LANE_DARKCURRENT_35C,Maximum dark current at 35C,5,300,nA,#0.0,0,2,0
MAX_LANE_DEV_LO_35C,Maximum deviation for LO at 35C,-1.24,1.24,dB,#0.00,0,2,0
MAX_LANE_DEV_SIG_35C,Maximum deviation for Signal at 35C,-1.24,1.24,dB,#0.00,0,2,0
MAX_LANE_RIPPLE_LOC_35C,max responsivity ripple with local input over lanes and wavelength at 35C,0,10,%,#0.0,0,2,0
MAX_X_DEV_LO_35C,max x deviation for local input at 35C,-9999,9999,dB,#0.00,0,2,0
MAX_X_DEV_SIG_35C,max x deviation for signal input at 35C,-9999,9999,dB,#0.00,0,2,0
MAX_Y_DEV_LO_35C,max y deviation for local input at 35C,-9999,9999,dB,#0.00,0,2,0
MAX_Y_DEV_SIG_35C,max y deviation for signal input at 35C,-9999,9999,dB,#0.00,0,2,0
MIN_LANE_RESP_LO_35C,Min responsivity LO at 35C,0.0375,0.125,A/W,#0.0000,0,2,0
MIN_LANE_RESP_SIG_35C,Min Responsivity Signal at 35C,0.007,0.125,A/W,#0.0000,0,2,0
PD_LO_35C_FILE,data of PDs with local oscillator at 35 degC,-9999,9999,none,&,0,3,0
PD_SIG_35C_FILE,data of PDs with signal at 35 degC,-9999,9999,none,&,0,3,0
PLOT_CMRR_LO_35C,plot for  cmrr for local Osc @normal temperature,-9999,9999,none,&,0,3,0
PLOT_CMRR_SIG_35C,plot for  cmrr for signal Osc @ normal temperature,-9999,9999,none,&,0,3,0
PLOT_PD_LO_35C,Plot of PDs with local oscillator at 35 degC,-9999,9999,file,&,0,4,0
PLOT_PD_SIG_35C,Plot of PDs with signal at 35 degC,-9999,9999,file,&,0,4,0
PLOT_RESP_LO_35C,plot for  Potodiode responsivity for local Osc @normal temperature,-9999,9999,none,&,0,3,0
PLOT_RESP_SIG_35C,plot for  Potodiode responsivity for signal Osc @ normal temperature,-9999,9999,none,&,0,3,0
PLOT_STAT_35C,plot for statistics  @normal temperature,-9999,9999,none,&,0,3,0
PLOT_VOA_SIG_35C_1529NM,Plot of VOA with signal at 35C,-9999,9999,file,&,0,4,0
PLOT_VOA_SIG_35C_1569NM,Plot of VOA with signal at 35C,-9999,9999,file,&,0,4,0
RESP_TAP_SIG_35C_1550NM,Responsivity of MPD with signal at 35 at 1550nm,0.013,0.03,A/W,#0.000,0,2,0
RESP_TAP_SIG_35C_AVG,Average Responsivity of MPD with signal at 35C,0.01,0.03,A/W,#0.000,0,2,0
RESP_TAP_SIG_35C_MAX,Maximum Responsivity of MPD with signal at 35C,0.01,0.035,A/W,#0.000,0,2,0
RESP_TAP_SIG_35C_MIN,Minimum Responsivity of MPD with signal at 35C,0.01,0.035,A/W,#0.000,0,2,0
RESP_XIN_LO_35C_1550NM,Responsivity of XI2 PD with local oscillator at ref wavelength at 35C,0.035,0.125,A/W,#0.0000,0,2,0
RESP_XIN_LO_35C_AVG,Average responsivity of XI2 PD with local oscillator at 35C,0.035,0.125,A/W,#0.0000,0,2,0
RESP_XIN_LO_35C_MAX,Maximum responsivity of XI2 PD with local oscillator at 35C,0.035,0.125,A/W,#0.0000,0,2,0
RESP_XIN_LO_35C_MIN,Minimum responsivity of XI2 PD with local oscillator at 35C,0.035,0.125,A/W,#0.0000,0,2,0
RESP_XIN_SIG_35C_1550NM,Responsivity of XI2 PD with signal at ref wavelength at 35C,0.04,0.125,A/W,#0.0000,0,2,0
RESP_XIN_SIG_35C_AVG,Average responsivity of XI2 PD with signal at 35C,0.04,0.125,A/W,#0.0000,0,2,0
RESP_XIN_SIG_35C_MAX,Maximum responsivity of XI2 PD with signal at 35C,0.04,0.125,A/W,#0.0000,0,2,0
RESP_XIN_SIG_35C_MIN,Minimum responsivity of XI2 PD with signal at 35C,0.04,0.125,A/W,#0.0000,0,2,0
RESP_XIP_LO_35C_1550NM,Responsivity of XI1 PD with local oscillator at ref wavelength at 35C,0.035,0.125,A/W,#0.0000,0,2,0
RESP_XIP_LO_35C_AVG,Average responsivity of XI1 PD with local oscillator at 35C,0.035,0.125,A/W,#0.0000,0,2,0
RESP_XIP_LO_35C_MAX,Maximum responsivity of XI1 PD with local oscillator at 35C,0.035,0.125,A/W,#0.0000,0,2,0
RESP_XIP_LO_35C_MIN,Minimum responsivity of XI1 PD with local oscillator at 35C,0.035,0.125,A/W,#0.0000,0,2,0
RESP_XIP_SIG_35C_1550NM,Responsivity of XI2 PD with signal at ref wavelength at 35C,0.04,0.125,A/W,#0.0000,0,2,0
RESP_XIP_SIG_35C_AVG,Average responsivity of XI1 PD with signal at 35C,0.04,0.125,A/W,#0.0000,0,2,0
RESP_XIP_SIG_35C_MAX,Maximum responsivity of XI1 PD with signal at 35C,0.04,0.125,A/W,#0.0000,0,2,0
RESP_XIP_SIG_35C_MIN,Minimum responsivity of XI1 PD with signal at 35C,0.04,0.125,A/W,#0.0000,0,2,0
RESP_XQN_LO_35C_1550NM,Responsivity of XQ2 PD with local oscillator at ref wavelength at 35C,0.035,0.125,A/W,#0.0000,0,2,0
RESP_XQN_LO_35C_AVG,Average responsivity of XQ2 PD with local oscillator at 35C,0.035,0.125,A/W,#0.0000,0,2,0
RESP_XQN_LO_35C_MAX,Maximum responsivity of XQ2 PD with local oscillator at 35C,0.035,0.125,A/W,#0.0000,0,2,0
RESP_XQN_LO_35C_MIN,Minimum responsivity of XQ2 PD with local oscillator at 35C,0.035,0.125,A/W,#0.0000,0,2,0
RESP_XQN_SIG_35C_1550NM,Responsivity of XQ2 PD with signal at ref wavelength at 35C,0.04,0.125,A/W,#0.0000,0,2,0
RESP_XQN_SIG_35C_AVG,Average responsivity of XQ2 PD with signal at 35C,0.04,0.125,A/W,#0.0000,0,2,0
RESP_XQN_SIG_35C_MAX,Maximum responsivity of XQ2 PD with signal at 35C,0.04,0.125,A/W,#0.0000,0,2,0
RESP_XQN_SIG_35C_MIN,Minimum responsivity of XQ2 PD with signal at 35C,0.04,0.125,A/W,#0.0000,0,2,0
RESP_XQP_LO_35C_1550NM,Responsivity of XQ1 PD with local oscillator at ref wavelength at 35C,0.035,0.125,A/W,#0.0000,0,2,0
RESP_XQP_LO_35C_AVG,Average responsivity of XQ1 PD with local oscillator at 35C,0.035,0.125,A/W,#0.0000,0,2,0
RESP_XQP_LO_35C_MAX,Maximum responsivity of XQ1 PD with local oscillator at 35C,0.035,0.125,A/W,#0.0000,0,2,0
RESP_XQP_LO_35C_MIN,Minimum responsivity of XQ1 PD with local oscillator at 35C,0.035,0.125,A/W,#0.0000,0,2,0
RESP_XQP_SIG_35C_1550NM,Responsivity of XQ1 PD with signal at ref wavelength at 35C,0.04,0.125,A/W,#0.0000,0,2,0
RESP_XQP_SIG_35C_AVG,Average responsivity of XQ1 PD with signal at 35C,0.04,0.125,A/W,#0.0000,0,2,0
RESP_XQP_SIG_35C_MAX,Maximum responsivity of XQ1 PD with signal at 35C,0.04,0.125,A/W,#0.0000,0,2,0
RESP_XQP_SIG_35C_MIN,Minimum responsivity of XQ1 PD with signal at 35C,0.04,0.125,A/W,#0.0000,0,2,0
RESP_YIN_LO_35C_1550NM,Responsivity of YI2 PD with local oscillator at ref wavelength at 35C,0.035,0.125,A/W,#0.0000,0,2,0
RESP_YIN_LO_35C_AVG,Average responsivity of YI2 PD with local oscillator at 35C,0.035,0.125,A/W,#0.0000,0,2,0
RESP_YIN_LO_35C_MAX,Maximum responsivity of YI2 PD with local oscillator at 35C,0.035,0.125,A/W,#0.0000,0,2,0
RESP_YIN_LO_35C_MIN,Minimum responsivity of YI2 PD with local oscillator at 35C,0.035,0.125,A/W,#0.0000,0,2,0
RESP_YIN_SIG_35C_1550NM,Responsivity of YI2 PD with signal at ref wavelength at 35C,0.04,0.125,A/W,#0.0000,0,2,0
RESP_YIN_SIG_35C_AVG,Average responsivity of YI2 PD with signal at 35C,0.04,0.125,A/W,#0.0000,0,2,0
RESP_YIN_SIG_35C_MAX,Maximum responsivity of YI2 PD with signal at 35C,0.04,0.125,A/W,#0.0000,0,2,0
RESP_YIN_SIG_35C_MIN,Minimum responsivity of YI2 PD with signal at 35C,0.04,0.125,A/W,#0.0000,0,2,0
RESP_YIP_LO_35C_1550NM,Responsivity of YI1 PD with local oscillator at ref wavelength at 35C,0.035,0.125,A/W,#0.0000,0,2,0
RESP_YIP_LO_35C_AVG,Average responsivity of YI1 PD with local oscillator at 35C,0.035,0.125,A/W,#0.0000,0,2,0
RESP_YIP_LO_35C_MAX,Maximum responsivity of YI1 PD with local oscillator at 35C,0.035,0.125,A/W,#0.0000,0,2,0
RESP_YIP_LO_35C_MIN,Minimum responsivity of YI1 PD with local oscillator at 35C,0.035,0.125,A/W,#0.0000,0,2,0
RESP_YIP_SIG_35C_1550NM,Responsivity of YI1 PD with signal at ref wavelength at 35C,0.04,0.125,A/W,#0.0000,0,2,0
RESP_YIP_SIG_35C_AVG,Average responsivity of YI1 PD with signal at 35C,0.04,0.125,A/W,#0.0000,0,2,0
RESP_YIP_SIG_35C_MAX,Maximum responsivity of YI1 PD with signal at 35C,0.04,0.125,A/W,#0.0000,0,2,0
RESP_YIP_SIG_35C_MIN,Minimum responsivity of YI1 PD with signal at 35C,0.04,0.125,A/W,#0.0000,0,2,0
RESP_YQN_LO_35C_1550NM,Responsivity of YQ2 PD with local oscillator at ref wavelength at 35C,0.035,0.125,A/W,#0.0000,0,2,0
RESP_YQN_LO_35C_AVG,Average responsivity of YQ2 PD with local oscillator at 35C,0.035,0.125,A/W,#0.0000,0,2,0
RESP_YQN_LO_35C_MAX,Maximum responsivity of YQ2 PD with local oscillator at 35C,0.035,0.125,A/W,#0.0000,0,2,0
RESP_YQN_LO_35C_MIN,Minimum responsivity of YQ2 PD with local oscillator at 35C,0.035,0.125,A/W,#0.0000,0,2,0
RESP_YQN_SIG_35C_1550NM,Responsivity of YQ2 PD with signal at ref wavelength at 35C,0.04,0.125,A/W,#0.0000,0,2,0
RESP_YQN_SIG_35C_AVG,Average responsivity of YQ2 PD with signal at 35C,0.04,0.125,A/W,#0.0000,0,2,0
RESP_YQN_SIG_35C_MAX,Maximum responsivity of YQ2 PD with signal at 35C,0.04,0.125,A/W,#0.0000,0,2,0
RESP_YQN_SIG_35C_MIN,Minimum responsivity of YQ2 PD with signal at 35C,0.04,0.125,A/W,#0.0000,0,2,0
RESP_YQP_LO_35C_1550NM,Responsivity of YQ1 PD with local oscillator at ref wavelength at 35C,0.035,0.125,A/W,#0.0000,0,2,0
RESP_YQP_LO_35C_AVG,Average responsivity of YQ1 PD with local oscillator at 35C,0.035,0.125,A/W,#0.0000,0,2,0
RESP_YQP_LO_35C_MAX,Maximum responsivity of YQ1 PD with local oscillator at 35C,0.035,0.125,A/W,#0.0000,0,2,0
RESP_YQP_LO_35C_MIN,Minimum responsivity of YQ1 PD with local oscillator at 35C,0.035,0.125,A/W,#0.0000,0,2,0
RESP_YQP_SIG_35C_1550NM,Responsivity of YQ1 PD with signal at ref wavelength at 35C,0.04,0.125,A/W,#0.0000,0,2,0
RESP_YQP_SIG_35C_AVG,Average responsivity of YQ1 PD with signal at 35C,0.04,0.125,A/W,#0.0000,0,2,0
RESP_YQP_SIG_35C_MAX,Maximum responsivity of YQ1 PD with signal at 35C,0.04,0.125,A/W,#0.0000,0,2,0
RESP_YQP_SIG_35C_MIN,Minimum responsivity of YQ1 PD with signal at 35C,0.04,0.125,A/W,#0.0000,0,2,0
RIPPLE_LO_35C_FILE,ripple file for local input at 35C,-9999,9999,none,&,0,3,0
TEMPERATURE_DUT_35C,DUT temperature at 35 degC,-9999,9999,degC,#0.00,0,2,0
TEMPERATURE_ROOM_35C,Room temperature at 35 degC,-9999,9999,degC,#0.00,0,2,0
TEMPERATURE_SET_35C,Temperature set at 35C,1,1,boolean,0,0,1,0
VOLTAGE_VOA10DB_X_35C_1529NM,Voltage on VOA for 10dB of attenuation on X chip at 35C,5,8,V,#0.000,0,2,0
VOLTAGE_VOA10DB_X_35C_1569NM,Voltage on VOA for 10dB of attenuation on X chip at 35C,5,8,V,#0.000,0,2,0
VOLTAGE_VOA10DB_Y_35C_1529NM,Voltage on VOA for 10dB of attenuation on Y chip at 35C,5,8,V,#0.000,0,2,0
VOLTAGE_VOA10DB_Y_35C_1569NM,Voltage on VOA for 10dB of attenuation on Y chip at 35C,5,8,V,#0.000,0,2,0
MAX_LANE_IMBALANCE_LO_35C,Maximum imbalance LO at 35C,0,1.6,dB,#0.00,0,2,0
MAX_LANE_IMBALANCE_SIG_35C,Maximum imbalance Signal at 35C,0,1.6,dB,#0.00,0,2,0
MAX_LANE_IMBALANCE_X_LO_35C,Maximum X imbalance LO at 35C,0,1.25,dB,#0.00,0,2,0
MAX_LANE_IMBALANCE_X_SIG_35C,Maximum X imbalance Signal at 35C,0,1.25,dB,#0.00,0,2,0
MAX_LANE_IMBALANCE_Y_LO_35C,Maximum Y imbalance LO at 35C,0,1.25,dB,#0.00,0,2,0
MAX_LANE_IMBALANCE_Y_SIG_35C,Maximum Y imbalance Signal at 35C,0,1.25,dB,#0.00,0,2,0
ATTEN_SIG_35C_1529NM_AVE_0V,Average X and Y attenuation for 0V VOA bias at 35C,-9999,9999,dB,#0.00,0,2,0
ATTEN_SIG_35C_1529NM_AVE_1V,Average X and Y attenuation for 1V VOA bias at 35C,-9999,9999,dB,#0.00,0,2,0
ATTEN_SIG_35C_1529NM_AVE_2V,Average X and Y attenuation for 2V VOA bias at 35C,-9999,9999,dB,#0.00,0,2,0
ATTEN_SIG_35C_1529NM_AVE_3V,Average X and Y attenuation for 3V VOA bias at 35C,-9999,9999,dB,#0.00,0,2,0
ATTEN_SIG_35C_1529NM_AVE_4V,Average X and Y attenuation for 4V VOA bias at 35C,-9999,9999,dB,#0.00,0,2,0
ATTEN_SIG_35C_1529NM_AVE_5V,Average X and Y attenuation for 5V VOA bias at 35C,-9999,9999,dB,#0.00,0,2,0
ATTEN_SIG_35C_1529NM_AVE_6V,Average X and Y attenuation for 6V VOA bias at 35C,-9999,9999,dB,#0.00,0,2,0
ATTEN_SIG_35C_1529NM_AVE_7V,Average X and Y attenuation for 7V VOA bias at 35C,-9999,9999,dB,#0.00,0,2,0
ATTEN_SIG_35C_1529NM_AVE_8V,Average X and Y attenuation for 8V VOA bias at 35C,-9999,9999,dB,#0.00,0,2,0
ATTEN_SIG_35C_1529NM_AVE_9V,Average X and Y attenuation for 9V VOA bias at 35C,-9999,9999,dB,#0.00,0,2,0
ATTEN_SIG_35C_1569NM_AVE_0V,Average X and Y attenuation for 0V VOA bias at 35C,-9999,9999,dB,#0.00,0,2,0
ATTEN_SIG_35C_1569NM_AVE_1V,Average X and Y attenuation for 1V VOA bias at 35C,-9999,9999,dB,#0.00,0,2,0
ATTEN_SIG_35C_1569NM_AVE_2V,Average X and Y attenuation for 2V VOA bias at 35C,-9999,9999,dB,#0.00,0,2,0
ATTEN_SIG_35C_1569NM_AVE_3V,Average X and Y attenuation for 3V VOA bias at 35C,-9999,9999,dB,#0.00,0,2,0
ATTEN_SIG_35C_1569NM_AVE_4V,Average X and Y attenuation for 4V VOA bias at 35C,-9999,9999,dB,#0.00,0,2,0
ATTEN_SIG_35C_1569NM_AVE_5V,Average X and Y attenuation for 5V VOA bias at 35C,-9999,9999,dB,#0.00,0,2,0
ATTEN_SIG_35C_1569NM_AVE_6V,Average X and Y attenuation for 6V VOA bias at 35C,-9999,9999,dB,#0.00,0,2,0
ATTEN_SIG_35C_1569NM_AVE_7V,Average X and Y attenuation for 7V VOA bias at 35C,-9999,9999,dB,#0.00,0,2,0
ATTEN_SIG_35C_1569NM_AVE_8V,Average X and Y attenuation for 8V VOA bias at 35C,-9999,9999,dB,#0.00,0,2,0
ATTEN_SIG_35C_1569NM_AVE_9V,Average X and Y attenuation for 9V VOA bias at 35C,-9999,9999,dB,#0.00,0,2,0
VOA_PDL_SIG_35C_1529NM_0DB,Polarisation dependent loss for 0dB attenuation at 35C,-9999,9999,dB,#0.00,0,2,0
VOA_PDL_SIG_35C_1529NM_1DB,Polarisation dependent loss for 1dB attenuation at 35C,-9999,9999,dB,#0.00,0,2,0
VOA_PDL_SIG_35C_1529NM_2DB,Polarisation dependent loss for 2dB attenuation at 35C,-9999,9999,dB,#0.00,0,2,0
VOA_PDL_SIG_35C_1529NM_3DB,Polarisation dependent loss for 3dB attenuation at 35C,-9999,9999,dB,#0.00,0,2,0
VOA_PDL_SIG_35C_1529NM_4DB,Polarisation dependent loss for 4dB attenuation at 35C,-9999,9999,dB,#0.00,0,2,0
VOA_PDL_SIG_35C_1529NM_5DB,Polarisation dependent loss for 5dB attenuation at 35C,-9999,9999,dB,#0.00,0,2,0
VOA_PDL_SIG_35C_1529NM_6DB,Polarisation dependent loss for 6dB attenuation at 35C,-9999,9999,dB,#0.00,0,2,0
VOA_PDL_SIG_35C_1529NM_7DB,Polarisation dependent loss for 7dB attenuation at 35C,-9999,9999,dB,#0.00,0,2,0
VOA_PDL_SIG_35C_1529NM_8DB,Polarisation dependent loss for 8dB attenuation at 35C,-9999,9999,dB,#0.00,0,2,0
VOA_PDL_SIG_35C_1529NM_9DB,Polarisation dependent loss for 9dB attenuation at 35C,-9999,9999,dB,#0.00,0,2,0
VOA_PDL_SIG_35C_1529NM_10DB,Polarisation dependent loss for 10dB attenuation at 35C,-9999,9999,dB,#0.00,0,2,0
VOA_PDL_SIG_35C_1569NM_0DB,Polarisation dependent loss for 0dB attenuation at 35C,-9999,9999,dB,#0.00,0,2,0
VOA_PDL_SIG_35C_1569NM_1DB,Polarisation dependent loss for 1dB attenuation at 35C,-9999,9999,dB,#0.00,0,2,0
VOA_PDL_SIG_35C_1569NM_2DB,Polarisation dependent loss for 2dB attenuation at 35C,-9999,9999,dB,#0.00,0,2,0
VOA_PDL_SIG_35C_1569NM_3DB,Polarisation dependent loss for 3dB attenuation at 35C,-9999,9999,dB,#0.00,0,2,0
VOA_PDL_SIG_35C_1569NM_4DB,Polarisation dependent loss for 4dB attenuation at 35C,-9999,9999,dB,#0.00,0,2,0
VOA_PDL_SIG_35C_1569NM_5DB,Polarisation dependent loss for 5dB attenuation at 35C,-9999,9999,dB,#0.00,0,2,0
VOA_PDL_SIG_35C_1569NM_6DB,Polarisation dependent loss for 6dB attenuation at 35C,-9999,9999,dB,#0.00,0,2,0
VOA_PDL_SIG_35C_1569NM_7DB,Polarisation dependent loss for 7dB attenuation at 35C,-9999,9999,dB,#0.00,0,2,0
VOA_PDL_SIG_35C_1569NM_8DB,Polarisation dependent loss for 8dB attenuation at 35C,-9999,9999,dB,#0.00,0,2,0
VOA_PDL_SIG_35C_1569NM_9DB,Polarisation dependent loss for 9dB attenuation at 35C,-9999,9999,dB,#0.00,0,2,0
VOA_PDL_SIG_35C_1569NM_10DB,Polarisation dependent loss for 10dB attenuation at 35C,-9999,9999,dB,#0.00,0,2,0
VOA_WDL_X_SIG_35C_0V,Wavelength dependent loss on XIP for 0V VOA bias at 35C,-9999,9999,dB,#0.00,0,2,0
VOA_WDL_X_SIG_35C_1V,Wavelength dependent loss on XIP for 1V VOA bias at 35C,-9999,9999,dB,#0.00,0,2,0
VOA_WDL_X_SIG_35C_2V,Wavelength dependent loss on XIP for 2V VOA bias at 35C,-9999,9999,dB,#0.00,0,2,0
VOA_WDL_X_SIG_35C_3V,Wavelength dependent loss on XIP for 3V VOA bias at 35C,-9999,9999,dB,#0.00,0,2,0
VOA_WDL_X_SIG_35C_4V,Wavelength dependent loss on XIP for 4V VOA bias at 35C,-9999,9999,dB,#0.00,0,2,0
VOA_WDL_X_SIG_35C_5V,Wavelength dependent loss on XIP for 5V VOA bias at 35C,-9999,9999,dB,#0.00,0,2,0
VOA_WDL_X_SIG_35C_6V,Wavelength dependent loss on XIP for 6V VOA bias at 35C,-9999,9999,dB,#0.00,0,2,0
VOA_WDL_X_SIG_35C_7V,Wavelength dependent loss on XIP for 7V VOA bias at 35C,-9999,9999,dB,#0.00,0,2,0
VOA_WDL_X_SIG_35C_8V,Wavelength dependent loss on XIP for 8V VOA bias at 35C,-9999,9999,dB,#0.00,0,2,0
VOA_WDL_X_SIG_35C_9V,Wavelength dependent loss on XIP for 9V VOA bias at 35C,-9999,9999,dB,#0.00,0,2,0
VOA_WDL_Y_SIG_35C_0V,Wavelength dependent loss on YIP for 0V VOA bias at 35C,-9999,9999,dB,#0.00,0,2,0
VOA_WDL_Y_SIG_35C_1V,Wavelength dependent loss on YIP for 1V VOA bias at 35C,-9999,9999,dB,#0.00,0,2,0
VOA_WDL_Y_SIG_35C_2V,Wavelength dependent loss on YIP for 2V VOA bias at 35C,-9999,9999,dB,#0.00,0,2,0
VOA_WDL_Y_SIG_35C_3V,Wavelength dependent loss on YIP for 3V VOA bias at 35C,-9999,9999,dB,#0.00,0,2,0
VOA_WDL_Y_SIG_35C_4V,Wavelength dependent loss on YIP for 4V VOA bias at 35C,-9999,9999,dB,#0.00,0,2,0
VOA_WDL_Y_SIG_35C_5V,Wavelength dependent loss on YIP for 5V VOA bias at 35C,-9999,9999,dB,#0.00,0,2,0
VOA_WDL_Y_SIG_35C_6V,Wavelength dependent loss on YIP for 6V VOA bias at 35C,-9999,9999,dB,#0.00,0,2,0
VOA_WDL_Y_SIG_35C_7V,Wavelength dependent loss on YIP for 7V VOA bias at 35C,-9999,9999,dB,#0.00,0,2,0
VOA_WDL_Y_SIG_35C_8V,Wavelength dependent loss on YIP for 8V VOA bias at 35C,-9999,9999,dB,#0.00,0,2,0
VOA_WDL_Y_SIG_35C_9V,Wavelength dependent loss on YIP for 9V VOA bias at 35C,-9999,9999,dB,#0.00,0,2,0
ATTEN_SIG_35C_1529NM_MPD_0V,Attenuation measured on MPD for 0V VOA bias at 35C,-9999,9999,dB,#0.00,0,2,0
ATTEN_SIG_35C_1529NM_MPD_1V,Attenuation measured on MPD for 1V VOA bias at 35C,-9999,9999,dB,#0.00,0,2,0
ATTEN_SIG_35C_1529NM_MPD_2V,Attenuation measured on MPD for 2V VOA bias at 35C,-9999,9999,dB,#0.00,0,2,0
ATTEN_SIG_35C_1529NM_MPD_3V,Attenuation measured on MPD for 3V VOA bias at 35C,-9999,9999,dB,#0.00,0,2,0
ATTEN_SIG_35C_1529NM_MPD_4V,Attenuation measured on MPD for 4V VOA bias at 35C,-9999,9999,dB,#0.00,0,2,0
ATTEN_SIG_35C_1529NM_MPD_5V,Attenuation measured on MPD for 5V VOA bias at 35C,-9999,9999,dB,#0.00,0,2,0
ATTEN_SIG_35C_1529NM_MPD_6V,Attenuation measured on MPD for 6V VOA bias at 35C,-9999,9999,dB,#0.00,0,2,0
ATTEN_SIG_35C_1529NM_MPD_7V,Attenuation measured on MPD for 7V VOA bias at 35C,-9999,9999,dB,#0.00,0,2,0
ATTEN_SIG_35C_1529NM_MPD_8V,Attenuation measured on MPD for 8V VOA bias at 35C,-9999,9999,dB,#0.00,0,2,0
ATTEN_SIG_35C_1529NM_MPD_9V,Attenuation measured on MPD for 9V VOA bias at 35C,-9999,9999,dB,#0.00,0,2,0
ATTEN_SIG_35C_1569NM_MPD_0V,Attenuation measured on MPD for 0V VOA bias at 35C,-9999,9999,dB,#0.00,0,2,0
ATTEN_SIG_35C_1569NM_MPD_1V,Attenuation measured on MPD for 1V VOA bias at 35C,-9999,9999,dB,#0.00,0,2,0
ATTEN_SIG_35C_1569NM_MPD_2V,Attenuation measured on MPD for 2V VOA bias at 35C,-9999,9999,dB,#0.00,0,2,0
ATTEN_SIG_35C_1569NM_MPD_3V,Attenuation measured on MPD for 3V VOA bias at 35C,-9999,9999,dB,#0.00,0,2,0
ATTEN_SIG_35C_1569NM_MPD_4V,Attenuation measured on MPD for 4V VOA bias at 35C,-9999,9999,dB,#0.00,0,2,0
ATTEN_SIG_35C_1569NM_MPD_5V,Attenuation measured on MPD for 5V VOA bias at 35C,-9999,9999,dB,#0.00,0,2,0
ATTEN_SIG_35C_1569NM_MPD_6V,Attenuation measured on MPD for 6V VOA bias at 35C,-9999,9999,dB,#0.00,0,2,0
ATTEN_SIG_35C_1569NM_MPD_7V,Attenuation measured on MPD for 7V VOA bias at 35C,-9999,9999,dB,#0.00,0,2,0
ATTEN_SIG_35C_1569NM_MPD_8V,Attenuation measured on MPD for 8V VOA bias at 35C,-9999,9999,dB,#0.00,0,2,0
ATTEN_SIG_35C_1569NM_MPD_9V,Attenuation measured on MPD for 9V VOA bias at 35C,-9999,9999,dB,#0.00,0,2,0
VOA_CURRENT_MAX_35C,Maximum VOA current at 35C,-9999,9999,mA,#0.00,0,2,0
MPD_LO_ISOLATION_MIN_35C,Minimum LO isolation on MPD at 35C,33,9999,dB,#0.00,0,2,0
